Presidential excitable speech analysis (1) | Joahn-lab
…
 2018.2 ~ 문재인 현 대통령의 국정 지지도와 네이버/다음 메인 시사 뉴스 댓글 중 ‘문재앙’ 키워드를 포함한 댓글의 좋아요/싫어요 수치를 구한다. 이를 상관 분석을 통해 비교하고자 한다.

국정 지지도 자료 수집

현 대통령의 국정 지지도 수치는 국내 여론조사 기관 ‘한국갤럽’과 ’리얼미터’의 주간 집계자료를 이용하되, 위키백과 항목에 주간별로 정리된 테이블을 스프레드시트에 옮겨 R로 전처리 후 사용한다. 보다 세부적인 대통령 국정평가 항목, 즉 ’긍정평가’ ‘부정평가’ 수치는 각 여론조사 기관 홈페이지에 게재되는 주간 동향 보도자료 내 수치를 스프레드시트로 정리한 후 사용한다.
cf. 구글 스프레드시트를 통해 크롤링하는 방법도 고려했지만, 여론조사 홈페이지 URL 링크의 불규칙성, 한글 주소의 인코딩 문제, PDF 파일 크롤링의 어려움 등을 감안해 주간 자료를 직접 table로 정리하는 것이 효율적이라고 판단했다.

국정 지지도 자료를 구하는 데에는 크게 2가지 경로가 있다. 하나는 위키백과 ‘대한민국의 대통령 지지율’ 항목에서 표로 정리된 리얼미터/한국갤럽 자료를 이용하는 것이고, 다른 하나는 해당 조사기관 홈페이지에 주마다 게시되는 보도자료를 직접 참조하는 것이다. 나는 일차적인 분석을 위해 간편한 위키백과 도표 자료를 이용하고, 일정한 인사이트를 얻은 후 해당 홈페이지에 게시된 보도자료의 더 상세한 수치를 직접 구글스프레드 시트 등으로 정리하여 R로 불러왔다.

# 조사기관 보도자료 내 긍정/부정평가 항목 데이터 불러오기 (리얼미터, 한국갤럽)

rlmeter_president = read_xlsx("poll_president.xlsx", sheet = 1, range = cell_cols("A:H"))
rlmeter_president

## # A tibble: 120 x 8
##    week                매우잘한다 잘하는편 잘못하는편 매우잘못함 잘한다 잘못한다
##    <dttm>                   <dbl>    <dbl>      <dbl>      <dbl>  <dbl>    <dbl>
##  1 2018-02-03 00:00:00       41.5     22         13.3       18.8   63.5     32.1
##  2 2018-02-10 00:00:00       43.8     19.3       12.4       19.1   63.1     31.5
##  3 2018-02-17 00:00:00       41.7     24         11         17.9   65.7     28.9
##  4 2018-02-24 00:00:00       42       23.5       12         18.6   65.5     30.6
##  5 2018-03-03 00:00:00       44.8     21         12.5       15.7   65.8     28.2
##  6 2018-03-10 00:00:00       49.2     20.4       10.5       13.3   69.6     23.8
##  7 2018-03-17 00:00:00       49.3     19.8       10.5       16.1   69.1     26.6
##  8 2018-03-24 00:00:00       48.6     20.9       11.1       14.5   69.5     25.6
##  9 2018-03-31 00:00:00       46.7     21.4       11.8       13.9   68.1     25.7
## 10 2018-04-07 00:00:00       42.9     23.9       11.6       15.1   66.8     26.7
## # ... with 110 more rows, and 1 more variable: 모름 <dbl>

gallup_president = read_xlsx("poll_president.xlsx", sheet = 2, range = cell_cols("B:H"))
gallup_president = bind_cols(gallup_president[1:120,], rlmeter_president[,1]) %>% 
  select(week, everything(), -`월(M)`, -`주(W)`, -`표본 수`)
gallup_president

## # A tibble: 120 x 5
##    week                g잘하고있다 g잘못하고있다 g어느쪽도아니다 g모름응답거절
##    <dttm>                    <dbl>         <dbl>           <dbl>         <dbl>
##  1 2018-02-03 00:00:00        0.63          0.28            0.04          0.05
##  2 2018-02-10 00:00:00       NA            NA              NA            NA   
##  3 2018-02-17 00:00:00        0.68          0.22            0.05          0.04
##  4 2018-02-24 00:00:00        0.64          0.26            0.04          0.06
##  5 2018-03-03 00:00:00        0.71          0.22            0.04          0.04
##  6 2018-03-10 00:00:00        0.74          0.18            0.05          0.04
##  7 2018-03-17 00:00:00        0.71          0.19            0.06          0.05
##  8 2018-03-24 00:00:00        0.7           0.21            0.05          0.04
##  9 2018-03-31 00:00:00        0.74          0.17            0.05          0.04
## 10 2018-04-07 00:00:00        0.72          0.19            0.05          0.04
## # ... with 110 more rows
…
  Summary_4[i-1, 1] = date
  Summary_4[i-1, 2] = like
  Summary_4[i-1, 3] = dislike
  Summary_4[i-1, 4] = nrow
  Summary_4[i-1, 5] = like_1
  Summary_4[i-1, 6] = dislike_1
  Summary_4[i-1, 7] = nrow_1
  print(i)}

daum_disaster_reply = read_xlsx("daum_disaster_reply.xlsx")

daum_disaster_reply

## # A tibble: 4,583 x 3
##    content                                                likeCount dislikeCount
##    <chr>                                                      <dbl>        <dbl>
##  1 "문재앙이 기래기"                                              1            0
##  2 "문재앙, 공산당이 싫어요"                                      0            3
##  3 "김대중좌빨세끼 국민연금만들고 실실 .... 노무현좌빨세끼 도로명주소법제화시키고 실실.... 문~         0            1
##  4 "문재앙 정권이 그렇지 뭐"                                      2            3
##  5 "경찰놈들도 문재앙"                                            1            2
##  6 "문재앙식 문주주의 크라스에 지렸습니다"                        1            4
##  7 "문재앙 미 친 새 퀴 때문에 장사 안되는데 ~ 세금만 뜯어 가려 하네? 미 친 놈들 ㅉㅉ"~         2            3
##  8 "문재앙\n부실기업\n민노총나라국민은제편이라\n마구처발라주고\n되는기업은\n먼지탈탈털어구속"~         0           11
##  9 "뭘 그리 놀래나.  \n문재앙정부 하는일이 다 그렇치 뭐,,  ㅋ"~         2            0
## 10 "응 문재앙"                                                    0            1
## # ... with 4,573 more rows
…
mySumm = tibble()
for (i in colnames(Summary.df[1:5])){
  for (j in colnames(Summary.df[24:55])){
    formula = as.formula(str_c("~",i,"+",j))
   myCorr = cor.test(formula, data = Summary.df) %>% tidy()
   myCorr$word = i
   myCorr$eval = j
    mySumm = bind_rows(myCorr, mySumm)
  }
}
mySumm %>% arrange(p.value) %>%
  select(word, eval, estimate, everything(), -method) %>%
  filter(p.value<.05)

## # A tibble: 106 x 9
##    word  eval  estimate statistic  p.value parameter conf.low conf.high
##    <chr> <chr>    <dbl>     <dbl>    <dbl>     <int>    <dbl>     <dbl>
##  1 disa~ g잘하고~    0.653      8.91 1.46e-14       107    0.530     0.749
##  2 disa~ 매우잘한~    0.636      8.79 1.81e-14       114    0.513     0.733
##  3 disa~ g잘못하~   -0.647     -8.77 3.04e-14       107   -0.744    -0.522
##  4 disa~ 잘한다~    0.627      8.59 5.27e-14       114    0.502     0.726
##  5 disa~ 잘못한다~   -0.626     -8.57 5.78e-14       114   -0.725    -0.501
##  6 sinn~ 진보잘못~   -0.630     -8.58 6.19e-14       112   -0.729    -0.504
##  7 sinn~ 매우잘한~    0.622      8.47 9.67e-14       114    0.495     0.722
##  8 disa~ 진보잘못~   -0.624     -8.45 1.21e-13       112   -0.725    -0.497
##  9 disa~ 중도잘한~    0.620      8.35 1.98e-13       112    0.492     0.721
## 10 disa~ 중도잘못~   -0.619     -8.33 2.23e-13       112   -0.721    -0.490
## # ... with 96 more rows, and 1 more variable: alternative <chr>

# option 2
mySumm %>% arrange(p.value) %>%
  select(word, eval, estimate, everything(), -method) %>%
  filter(p.value<.05)

## # A tibble: 108 x 9
##    word  eval  estimate statistic  p.value parameter conf.low conf.high
##    <chr> <chr>    <dbl>     <dbl>    <dbl>     <int>    <dbl>     <dbl>
##  1 disa~ 잘한다~   -0.668     -9.59 2.54e-16       114   -0.758    -0.553
##  2 disa~ 잘못한다~    0.665      9.50 4.02e-16       114    0.549     0.756
##  3 disa~ 중도잘한~   -0.669     -9.53 4.03e-16       112   -0.760    -0.553
##  4 disa~ 매우잘한~   -0.664     -9.48 4.48e-16       114   -0.755    -0.548
##  5 disa~ 중도잘못~    0.667      9.48 5.20e-16       112    0.551     0.758
##  6 disa~ 보수매우~    0.660      9.30 1.34e-15       112    0.542     0.753
##  7 disa~ 보수잘못~    0.659      9.27 1.61e-15       112    0.540     0.752
##  8 disa~ 중도매우~   -0.658     -9.24 1.87e-15       112   -0.751    -0.539
##  9 disa~ 보수매우~   -0.653     -9.13 3.32e-15       112   -0.747    -0.533
## 10 disa~ g잘하고~   -0.661     -9.12 5.07e-15       107   -0.755    -0.540
## # ... with 98 more rows, and 1 more variable: alternative <chr>

# option 3
mySumm.2 %>% arrange(p.value) %>%
  select(word, eval, estimate, everything(), -method) %>%
  filter(p.value<.05)

## # A tibble: 121 x 9
##    word  eval  estimate statistic  p.value parameter conf.low conf.high
##    <chr> <chr>    <dbl>     <dbl>    <dbl>     <int>    <dbl>     <dbl>
##  1 head  중도잘못~    0.779      13.1 2.05e-24       112    0.694     0.842
##  2 head  중도잘한~   -0.772     -12.9 8.41e-24       112   -0.837    -0.686
##  3 head  중도매우~    0.765      12.6 3.95e-23       112    0.676     0.832
##  4 head  보수잘못~    0.762      12.5 6.59e-23       112    0.673     0.830
##  5 head  보수매우~    0.761      12.4 8.01e-23       112    0.672     0.829
##  6 head  매우잘못~    0.757      12.4 8.99e-23       114    0.666     0.825
##  7 head  잘못한다~    0.756      12.3 9.72e-23       114    0.666     0.825
##  8 head  보수잘한~   -0.752     -12.1 5.60e-22       112   -0.822    -0.659
##  9 head  잘한다~   -0.737     -11.6 3.91e-21       114   -0.811    -0.641
## 10 head  중도매우~   -0.722     -11.0 1.33e-19       112   -0.799    -0.620
## # ... with 111 more rows, and 1 more variable: alternative <chr>
…
