Joahn-lab
…
1. Motivation

With the development of the aviation industry in recent years, there has been surging needs for business analysis about customer convenience in flights, especially in the US. According to an article called “Consumer satisfaction in the skies soars to record high in annual airline travel survey” published in CNBC last year, “2019 North American Airline Satisfaction Survey shows travelers gave the industry a record-high score, with the biggest improvements coming from so-called legacy carriers.” It is strongly sure that this improvement about proficiency in customer service has helped airlines record high sales.
But the bottom line is within a year after this high reputation, in the crisis of this worldwide COVID-19 outbreak, all the airline services and the whole industry got a huge damage on their own businesses due to every country’s current travel restrictions and social distancing policies. As a matter of fact, “Warren Buffett said Berkshire Hathaway sold its entire stakes in the four largest U.S. carriers as coronavirus devastates travel demand.” last month. The four, which are well-known as four major airlines in US flight industries, “American”, “Delta”, “United”, “Southwest”, “had posted their first quarterly losses in years, and warned of a slow recovery in demand from pre-pandemic levels. Even the CEO of Delta airlines said it could take 2 to 3 years from now.” And not surprisingly, carriers in South Korea suffer the similar situation in industry and businesses.
So, what we have decided is to analyze how we can suggest to make airlines perform in a quite competitive manner. How will they fly again to risk this situation and attract their customers who want their needs to be satisfied? And moreover, how can this strategy be coordinated with the country’s travel restrictions and social distancing? We wanted to help make breakthroughs now of crisis for airlines by harnessing the analysis skills we’ve learned from this class.

2. Data Explanation

Our dataset for analysis on the research paper is posted in Kaggle, this dataset deals with US airlines satisfaction survey, and contains 24 columns in about 130000 observations. Short descriptions about 24 columns provided by the publisher of this dataset in Kaggle, are as follows in the table.

sf = read_xlsx("satisfaction.xlsx")
sf

## # A tibble: 129,880 x 24
##        id satisfaction_v2 Gender `Customer Type`   Age `Type of Travel` Class
##     <dbl> <chr>           <chr>  <chr>           <dbl> <chr>            <chr>
##  1  11112 satisfied       Female Loyal Customer     65 Personal Travel  Eco  
##  2 110278 satisfied       Male   Loyal Customer     47 Personal Travel  Busi~
##  3 103199 satisfied       Female Loyal Customer     15 Personal Travel  Eco  
##  4  47462 satisfied       Female Loyal Customer     60 Personal Travel  Eco  
##  5 120011 satisfied       Female Loyal Customer     70 Personal Travel  Eco  
##  6 100744 satisfied       Male   Loyal Customer     30 Personal Travel  Eco  
##  7  32838 satisfied       Female Loyal Customer     66 Personal Travel  Eco  
##  8  32864 satisfied       Male   Loyal Customer     10 Personal Travel  Eco  
##  9  53786 satisfied       Female Loyal Customer     56 Personal Travel  Busi~
## 10   7243 satisfied       Male   Loyal Customer     22 Personal Travel  Eco  
## # ... with 129,870 more rows, and 17 more variables: `Flight Distance` <dbl>,
## #   `Seat comfort` <dbl>, `Departure/Arrival time convenient` <dbl>, `Food and
## #   drink` <dbl>, `Gate location` <dbl>, `Inflight wifi service` <dbl>,
## #   `Inflight entertainment` <dbl>, `Online support` <dbl>, `Ease of Online
## #   booking` <dbl>, `On-board service` <dbl>, `Leg room service` <dbl>,
## #   `Baggage handling` <dbl>, `Checkin service` <dbl>, Cleanliness <dbl>,
## #   `Online boarding` <dbl>, `Departure Delay in Minutes` <dbl>, `Arrival Delay
## #   in Minutes` <dbl>
…
