BA Analytics report
…
2. Data Explanation

Our dataset for analysis on the research paper is posted in Kaggle, this dataset deals with US airlines satisfaction survey, and contains 24 columns in about 130000 observations. Short descriptions about 24 columns provided by the publisher of this dataset in Kaggle, are as follows in the table.

sf = read_xlsx("satisfaction.xlsx")
sf

## # A tibble: 129,880 x 24
##        id satisfaction_v2 Gender `Customer Type`   Age `Type of Travel` Class
##     <dbl> <chr>           <chr>  <chr>           <dbl> <chr>            <chr>
##  1  11112 satisfied       Female Loyal Customer     65 Personal Travel  Eco  
##  2 110278 satisfied       Male   Loyal Customer     47 Personal Travel  Busi~
##  3 103199 satisfied       Female Loyal Customer     15 Personal Travel  Eco  
##  4  47462 satisfied       Female Loyal Customer     60 Personal Travel  Eco  
##  5 120011 satisfied       Female Loyal Customer     70 Personal Travel  Eco  
##  6 100744 satisfied       Male   Loyal Customer     30 Personal Travel  Eco  
##  7  32838 satisfied       Female Loyal Customer     66 Personal Travel  Eco  
##  8  32864 satisfied       Male   Loyal Customer     10 Personal Travel  Eco  
##  9  53786 satisfied       Female Loyal Customer     56 Personal Travel  Busi~
## 10   7243 satisfied       Male   Loyal Customer     22 Personal Travel  Eco  
## # ... with 129,870 more rows, and 17 more variables: `Flight Distance` <dbl>,
## #   `Seat comfort` <dbl>, `Departure/Arrival time convenient` <dbl>, `Food and
## #   drink` <dbl>, `Gate location` <dbl>, `Inflight wifi service` <dbl>,
## #   `Inflight entertainment` <dbl>, `Online support` <dbl>, `Ease of Online
## #   booking` <dbl>, `On-board service` <dbl>, `Leg room service` <dbl>,
## #   `Baggage handling` <dbl>, `Checkin service` <dbl>, Cleanliness <dbl>,
## #   `Online boarding` <dbl>, `Departure Delay in Minutes` <dbl>, `Arrival Delay
## #   in Minutes` <dbl>
…
